# 
# Wavefront material file
# Created with Kaydara FBX
# 

newmtl prop_asteroid_03_mat
map_Kd prop_asteroid_03_dff.psd
Ka 0.588000 0.588000 0.588000
Kd 1.000000 1.000000 1.000000
Ks 0.500000 0.500000 0.500000
illum 2
Ns 20.000000
Tr 1.000000
